{
  "changes": [
    {
      "description": "Bump bitbucket-pipes-toolkit to fix vulnerabilities.",
      "type": "minor"
    }
  ],
  "created_at": "2024-01-15T14:33:09.444282+00:00",
  "version": "1.6.0"
}